Project 2: Data Mining, Classification, Prediction
…
Morgan Daniels mcd2925

Introduction

I chose a data set that include data on 753 families. The data is based around whether the woman of the household participates in the labor force (has a job). It includes variables counting how many children in the household are under 5, how many children are between 6 and 18, whether the wife attended college, whether the husband attended college, the log wage of the womens earnings (adjusted if she does not have a job), and then the household income without the wifes earnings.

This data set met the requirements for the project and intrigued me as to what results I could find about the relationship between number of children of certain age, log of wages and even college education on a womans choice to participate in the labor force. As an economics major I have spent a lot of course load focused on labor economics and gender and equality economics and this data set really brought together my interests. I am excited to experiment with this set for this project!

library(tidyverse)
womenslfp <- read_csv("~/project2/us womens labor force.csv")

head(womenslfp)

## # A tibble: 6 x 9
##      X1 lfp      k5  k618   age wc    hc       lwg   inc
##   <dbl> <lgl> <dbl> <dbl> <dbl> <lgl> <lgl>  <dbl> <dbl>
## 1     1 TRUE      1     0    32 FALSE FALSE 1.21   10.9 
## 2     2 TRUE      0     2    30 FALSE FALSE 0.329  19.5 
## 3     3 TRUE      1     3    35 FALSE FALSE 1.51   12.0 
## 4     4 TRUE      0     3    34 FALSE FALSE 0.0921  6.80
## 5     5 TRUE      1     2    31 TRUE  FALSE 1.52   20.1 
## 6     6 TRUE      0     0    54 FALSE FALSE 1.56    9.86

Cluster Analysis

library(cluster)
pamdata <- womenslfp %>% select(age, lwg, inc)
pam1 <- pamdata %>% pam(k = 3)
pam1

## Medoids:
##       ID age      lwg  inc
## [1,]  68  34 1.070442 15.5
## [2,] 649  49 1.235715 15.5
## [3,] 695  43 1.122305 29.8
## Clustering vector:
##   [1] 1 1 1 1 1 2 1 2 2 1 1 2 1 2 3 1 2 1 2 1 3 1 2 2 1 3 2 1 1 2 2 2 1 2 2 2 2
##  [38] 2 2 1 1 2 1 2 1 1 2 2 2 1 3 2 1 2 2 1 2 1 2 1 3 2 2 2 1 1 2 1 3 2 1 3 2 1
##  [75] 1 2 1 2 1 3 2 2 2 2 2 2 2 2 3 1 2 1 3 3 1 2 3 1 2 3
##  [ reached getOption("max.print") -- omitted 653 entries ]
…
